{
    "/backend/assets/js/dashboard.js": "/backend/assets/js/dashboard.js",
    "/backend/assets/js/main.js": "/backend/assets/js/main.js",
    "/backend/modules/banners/js/banners.js": "/backend/modules/banners/js/banners.js",
    "/backend/modules/blogs/js/blogs.js": "/backend/modules/blogs/js/blogs.js",
    "/backend/modules/blogs/js/categories.js": "/backend/modules/blogs/js/categories.js",
    "/backend/modules/categories/js/categories.js": "/backend/modules/categories/js/categories.js",
    "/backend/modules/freegifts/js/freegifts.js": "/backend/modules/freegifts/js/freegifts.js",
    "/backend/modules/offers/js/offers.js": "/backend/modules/offers/js/offers.js",
    "/backend/modules/products/js/products.js": "/backend/modules/products/js/products.js",
    "/backend/modules/users/js/changePassword.js": "/backend/modules/users/js/changePassword.js",
    "/frontend/js/scripts.js": "/frontend/js/scripts.js",
    "/frontend/css/style.css": "/frontend/css/style.css",
    "/frontend/css/style_old.css": "/frontend/css/style_old.css",
    "/backend/assets/css/theme.css": "/backend/assets/css/theme.css",
    "/frontend/modules/users/js/changePassword.js": "/frontend/modules/users/js/changePassword.js",
    "/frontend/modules/users/js/login.js": "/frontend/modules/users/js/login.js",
    "/frontend/modules/users/js/register.js": "/frontend/modules/users/js/register.js",
    "/frontend/modules/users/js/users.js": "/frontend/modules/users/js/users.js"
}
